…
# Contingency Tables

## Franchise Records

``` r
as.tbl(wrapfnc("record","franchise"))
```

    ## # A tibble: 39 x 9
    ##    data.id data.firstSeaso~ data.fullName data.lastSeason~ data.mostRecent~
    ##      <int>            <int> <chr>                    <int>            <int>
    ##  1       1         19171918 Montréal Can~               NA                8
    ##  2       2         19171918 Montreal Wan~         19171918               41
    ##  3       3         19171918 St. Louis Ea~         19341935               45
    ##  4       4         19191920 Hamilton Tig~         19241925               37
    ##  5       5         19171918 Toronto Mapl~               NA               10
    ##  6       6         19241925 Boston Bruins               NA                6
    ##  7       7         19241925 Montreal Mar~         19371938               43
    ##  8       8         19251926 Brooklyn Ame~         19411942               51
    ##  9       9         19251926 Philadelphia~         19301931               39
    ## 10      10         19261927 New York Ran~               NA                3
    ## # ... with 29 more rows, and 4 more variables: data.teamAbbrev <chr>,
    ## #   data.teamCommonName <chr>, data.teamPlaceName <chr>, total <int>

## Franchise-team-totals Records

``` r
as.tbl(wrapfnc("record","franchise","team-totals"))
```

    ## # A tibble: 105 x 31
    ##    data.id data.activeFran~ data.firstSeaso~ data.franchiseId
    ##      <int>            <int>            <int>            <int>
    ##  1       1                1         19821983               23
    ##  2       2                1         19821983               23
    ##  3       3                1         19721973               22
    ##  4       4                1         19721973               22
    ##  5       5                1         19261927               10
    ##  6       6                1         19261927               10
    ##  7       7                1         19671968               16
    ##  8       8                1         19671968               16
    ##  9       9                1         19671968               17
    ## 10      10                1         19671968               17
    ## # ... with 95 more rows, and 27 more variables: data.gameTypeId <int>,
    ## #   data.gamesPlayed <int>, data.goalsAgainst <int>, data.goalsFor <int>,
    ## #   data.homeLosses <int>, data.homeOvertimeLosses <int>,
    ## #   data.homeTies <int>, data.homeWins <int>, data.lastSeasonId <int>,
    ## #   data.losses <int>, data.overtimeLosses <int>,
    ## #   data.penaltyMinutes <int>, data.pointPctg <dbl>, data.points <int>,
    ## #   data.roadLosses <int>, data.roadOvertimeLosses <int>,
    ## #   data.roadTies <int>, data.roadWins <int>, data.shootoutLosses <int>,
    ## #   data.shootoutWins <int>, data.shutouts <int>, data.teamId <int>,
…
## franchise-goalie-records by franchiseId=ID

``` r
# I choose ID=20
as.tbl(wrapfnc("record","franchise","goalie-records","franchiseId",20))
```

    ## # A tibble: 40 x 30
    ##    data.id data.activePlay~ data.firstName data.franchiseId
    ##      <int> <lgl>            <chr>                     <int>
    ##  1     304 FALSE            Richard                      20
    ##  2     364 FALSE            Gary                         20
    ##  3     367 FALSE            Sean                         20
    ##  4    1224 FALSE            Frank                        20
    ##  5     373 FALSE            Jacques                      20
    ##  6     406 FALSE            Bob                          20
    ##  7     423 FALSE            Troy                         20
    ##  8     424 FALSE            John                         20
    ##  9     500 FALSE            Bob                          20
    ## 10     243 FALSE            Kirk                         20
    ## # ... with 30 more rows, and 26 more variables: data.franchiseName <chr>,
    ## #   data.gameTypeId <int>, data.gamesPlayed <int>, data.lastName <chr>,
    ## #   data.losses <int>, data.mostGoalsAgainstDates <chr>,
    ## #   data.mostGoalsAgainstOneGame <int>, data.mostSavesDates <chr>,
    ## #   data.mostSavesOneGame <int>, data.mostShotsAgainstDates <chr>,
    ## #   data.mostShotsAgainstOneGame <int>, data.mostShutoutsOneSeason <int>,
    ## #   data.mostShutoutsSeasonIds <chr>, data.mostWinsOneSeason <int>,
    ## #   data.mostWinsSeasonIds <chr>, data.overtimeLosses <int>,
    ## #   data.playerId <int>, data.positionCode <chr>,
    ## #   data.rookieGamesPlayed <int>, data.rookieShutouts <int>,
    ## #   data.rookieWins <int>, data.seasons <int>, data.shutouts <int>,
    ## #   data.ties <int>, data.wins <int>, total <int>

``` r
# I choose Franchise full name="Philadelphia Flyers"
as.tbl(wrapfnc("record","franchise","goalie-records","franchiseId","Philadelphia Flyers"))
```

    ## # A tibble: 34 x 30
    ##    data.id data.activePlay~ data.firstName data.franchiseId
    ##      <int> <lgl>            <chr>                     <int>
    ##  1     341 FALSE            Stephane                     16
    ##  2     366 FALSE            Sean                         16
    ##  3     440 FALSE            Jeff                         16
    ##  4     239 FALSE            Ron                          16
    ##  5     466 FALSE            Gary                         16
    ##  6     482 FALSE            Mark                         16
    ##  7     485 FALSE            Michel                       16
    ##  8     531 FALSE            Phil                         16
    ##  9     584 FALSE            Bruce                        16
    ## 10     307 FALSE            Bernie                       16
    ## # ... with 24 more rows, and 26 more variables: data.franchiseName <chr>,
    ## #   data.gameTypeId <int>, data.gamesPlayed <int>, data.lastName <chr>,
    ## #   data.losses <int>, data.mostGoalsAgainstDates <chr>,
    ## #   data.mostGoalsAgainstOneGame <int>, data.mostSavesDates <chr>,
    ## #   data.mostSavesOneGame <int>, data.mostShotsAgainstDates <chr>,
    ## #   data.mostShotsAgainstOneGame <int>, data.mostShutoutsOneSeason <int>,
    ## #   data.mostShutoutsSeasonIds <chr>, data.mostWinsOneSeason <int>,
    ## #   data.mostWinsSeasonIds <chr>, data.overtimeLosses <int>,
    ## #   data.playerId <int>, data.positionCode <chr>,
    ## #   data.rookieGamesPlayed <int>, data.rookieShutouts <int>,
    ## #   data.rookieWins <int>, data.seasons <int>, data.shutouts <int>,
    ## #   data.ties <int>, data.wins <int>, total <int>

## franchise-skater-records by franchiseId=ID

``` r
# I choose ID=30
as.tbl(wrapfnc("record","franchise","skater-records","franchiseId",30))
```

    ## # A tibble: 364 x 32
    ##    data.id data.activePlay~ data.assists data.firstName data.franchiseId
    ##      <int> <lgl>                   <int> <chr>                     <int>
    ##  1   18785 FALSE                       0 Joe                          30
    ##  2   19225 FALSE                       0 Bobby                        30
    ##  3   19982 FALSE                       1 Marc                         30
    ##  4   22168 FALSE                       2 Steve                        30
    ##  5   22256 FALSE                       1 Jim                          30
    ##  6   22437 FALSE                       1 Dominic                      30
    ##  7   22496 FALSE                       2 Stephen                      30
    ##  8   22590 FALSE                       1 Francois                     30
    ##  9   23076 FALSE                       3 Brad                         30
    ## 10   23650 FALSE                       0 Brad                         30
    ## # ... with 354 more rows, and 27 more variables: data.franchiseName <chr>,
    ## #   data.gameTypeId <int>, data.gamesPlayed <int>, data.goals <int>,
    ## #   data.lastName <chr>, data.mostAssistsGameDates <chr>,
    ## #   data.mostAssistsOneGame <int>, data.mostAssistsOneSeason <int>,
    ## #   data.mostAssistsSeasonIds <chr>, data.mostGoalsGameDates <chr>,
    ## #   data.mostGoalsOneGame <int>, data.mostGoalsOneSeason <int>,
    ## #   data.mostGoalsSeasonIds <chr>, data.mostPenaltyMinutesOneSeason <int>,
    ## #   data.mostPenaltyMinutesSeasonIds <chr>,
    ## #   data.mostPointsGameDates <chr>, data.mostPointsOneGame <int>,
    ## #   data.mostPointsOneSeason <int>, data.mostPointsSeasonIds <chr>,
    ## #   data.penaltyMinutes <int>, data.playerId <int>, data.points <int>,
    ## #   data.positionCode <chr>, data.rookieGamesPlayed <int>,
    ## #   data.rookiePoints <int>, data.seasons <int>, total <int>

``` r
# I choose Franchise full name="New York Rangers"
as.tbl(wrapfnc("record","franchise","skater-records","franchiseId","New York Rangers"))
```

    ## # A tibble: 995 x 32
    ##    data.id data.activePlay~ data.assists data.firstName data.franchiseId
    ##      <int> <lgl>                   <int> <chr>                     <int>
    ##  1   17208 FALSE                       1 Doug                         10
    ##  2   17216 FALSE                       0 Lloyd                        10
    ##  3   17230 FALSE                       1 Bill                         10
    ##  4   17310 FALSE                       0 Hub                          10
    ##  5   17360 FALSE                       0 Ron                          10
    ##  6   17374 FALSE                       4 Vern                         10
    ##  7   17444 FALSE                       0 Cliff                        10
    ##  8   17449 FALSE                       0 Frank                        10
    ##  9   17467 FALSE                       1 Harry                        10
    ## 10   17523 FALSE                       0 Bob                          10
    ## # ... with 985 more rows, and 27 more variables: data.franchiseName <chr>,
    ## #   data.gameTypeId <int>, data.gamesPlayed <int>, data.goals <int>,
    ## #   data.lastName <chr>, data.mostAssistsGameDates <chr>,
    ## #   data.mostAssistsOneGame <int>, data.mostAssistsOneSeason <int>,
    ## #   data.mostAssistsSeasonIds <chr>, data.mostGoalsGameDates <chr>,
    ## #   data.mostGoalsOneGame <int>, data.mostGoalsOneSeason <int>,
    ## #   data.mostGoalsSeasonIds <chr>, data.mostPenaltyMinutesOneSeason <int>,
    ## #   data.mostPenaltyMinutesSeasonIds <chr>,
    ## #   data.mostPointsGameDates <chr>, data.mostPointsOneGame <int>,
…
## Team Stat modifier

``` r
# I choose all ID
as.tbl(wrapfnc("stat","teams"))
```

    ## # A tibble: 62 x 66
    ##    copyright teams.id teams.name teams.link teams.abbreviat~ teams.teamName
    ##    <fct>        <int> <chr>      <chr>      <chr>            <chr>         
    ##  1 NHL and ~        1 New Jerse~ /api/v1/t~ NJD              Devils        
    ##  2 NHL and ~        1 New Jerse~ /api/v1/t~ NJD              Devils        
    ##  3 NHL and ~        2 New York ~ /api/v1/t~ NYI              Islanders     
    ##  4 NHL and ~        2 New York ~ /api/v1/t~ NYI              Islanders     
    ##  5 NHL and ~        3 New York ~ /api/v1/t~ NYR              Rangers       
    ##  6 NHL and ~        3 New York ~ /api/v1/t~ NYR              Rangers       
    ##  7 NHL and ~        4 Philadelp~ /api/v1/t~ PHI              Flyers        
    ##  8 NHL and ~        4 Philadelp~ /api/v1/t~ PHI              Flyers        
    ##  9 NHL and ~        5 Pittsburg~ /api/v1/t~ PIT              Penguins      
    ## 10 NHL and ~        5 Pittsburg~ /api/v1/t~ PIT              Penguins      
    ## # ... with 52 more rows, and 60 more variables: teams.locationName <chr>,
    ## #   teams.firstYearOfPlay <chr>, stat.gamesPlayed <int>, stat.wins <chr>,
    ## #   stat.losses <chr>, stat.ot <chr>, stat.pts <chr>, stat.ptPctg <chr>,
    ## #   stat.goalsPerGame <chr>, stat.goalsAgainstPerGame <chr>,
    ## #   stat.evGGARatio <chr>, stat.powerPlayPercentage <chr>,
    ## #   stat.powerPlayGoals <chr>, stat.powerPlayGoalsAgainst <chr>,
    ## #   stat.powerPlayOpportunities <chr>, stat.penaltyKillPercentage <chr>,
    ## #   stat.shotsPerGame <chr>, stat.shotsAllowed <chr>,
    ## #   stat.winScoreFirst <chr>, stat.winOppScoreFirst <chr>,
…
